Simple model fitting – SDM Workshop
…
Step 2: Identify highly correlated pairs

# Threshold for "high correlation"
high_corr_thresh <- 0.7

# Find pairs above threshold
high_corr_pairs <- cor(env_vars, use = "pairwise.complete.obs") %>%
  as.data.frame() %>%
  rownames_to_column("var1") %>%
  tidyr::pivot_longer(-var1, names_to = "var2", values_to = "r") %>%
  filter(abs(r) > high_corr_thresh & var1 != var2)

high_corr_pairs

# A tibble: 140 × 3
   var1  var2           r
   <chr> <chr>      <dbl>
 1 bio_1 bio_5      0.808
 2 bio_1 bio_6      0.862
 3 bio_1 bio_10     0.949
 4 bio_1 bio_11     0.939
 5 bio_1 bio_14    -0.704
 6 bio_1 elevation -0.798
 7 bio_2 bio_4      0.790
 8 bio_2 bio_5      0.710
 9 bio_2 bio_7      0.930
10 bio_2 bio_15    -0.734
# ℹ 130 more rows
…
